<?xml version="1.0" encoding="utf-8"?>
<!-- Generator: Adobe Illustrator 25.4.1, SVG Export Plug-In . SVG Version: 6.00 Build 0)  -->
<svg version="1.1" id="Layer_1" xmlns="http://www.w3.org/2000/svg" xmlns:xlink="http://www.w3.org/1999/xlink" x="0px" y="0px"
	 viewBox="0 0 185 182" style="enable-background:new 0 0 185 182;" xml:space="preserve">
<style type="text/css">
	.st0{fill:#039035;}
</style>
<g>
	<path class="st0" d="M169.2,36.1c-2.5-1.1-4.5-3.1-5.6-5.6l-6.3-14.7l-6.3,14.7c-1.1,2.5-3.1,4.5-5.6,5.6l-14.7,6.3l14.7,6.3
		c2.5,1.1,4.5,3.1,5.6,5.6l6.3,14.7l6.3-14.7c1.1-2.5,3.1-4.5,5.6-5.6l14.7-6.3L169.2,36.1z"/>
	<path class="st0" d="M107.4,24.1l2.8,6.5l2.8-6.5c0.5-1.1,1.4-2,2.5-2.5l6.5-2.8l-6.5-2.8c-1.1-0.5-2-1.4-2.5-2.5L110.2,7l-2.8,6.5
		c-0.5,1.1-1.4,2-2.5,2.5l-6.5,2.8l6.5,2.8C106,22.1,106.9,22.9,107.4,24.1z"/>
	<path class="st0" d="M54.2,68.9c0-18,6.8-34.4,17.9-46.9C32.4,25,1.1,58,1.1,98.4c0,42.3,34.3,76.6,76.6,76.6
		c28.2,0,52.8-15.3,66.1-38c-6,1.7-12.4,2.6-19,2.6C85.9,139.6,54.2,108,54.2,68.9z"/>
</g>
</svg>
